[
    {
        "_id": "7343f850-dfd2-11e7-9fb2-3ba409830aac",
        "_type": "dashboard",
        "_source": {
            "title": "Swagger-Stats",
            "hits": 0,
            "description": "",
            "panelsJSON": "[{\"panelIndex\":\"2\",\"gridData\":{\"x\":0,\"y\":2,\"w\":8,\"h\":3,\"i\":\"2\"},\"id\":\"2705cd20-dfd1-11e7-9fb2-3ba409830aac\",\"type\":\"visualization\",\"version\":\"6.1.0\"},{\"panelIndex\":\"3\",\"gridData\":{\"x\":0,\"y\":5,\"w\":8,\"h\":3,\"i\":\"3\"},\"id\":\"60653b30-dfd3-11e7-9fb2-3ba409830aac\",\"type\":\"visualization\",\"version\":\"6.1.0\"},{\"panelIndex\":\"4\",\"gridData\":{\"x\":0,\"y\":0,\"w\":2,\"h\":2,\"i\":\"4\"},\"id\":\"ffd832f0-e094-11e7-951b-055a0953933c\",\"type\":\"visualization\",\"version\":\"6.1.0\"},{\"panelIndex\":\"5\",\"gridData\":{\"x\":0,\"y\":8,\"w\":12,\"h\":6,\"i\":\"5\"},\"id\":\"2f17ccc0-e094-11e7-951b-055a0953933c\",\"type\":\"visualization\",\"version\":\"6.1.0\"},{\"panelIndex\":\"6\",\"gridData\":{\"x\":8,\"y\":2,\"w\":4,\"h\":6,\"i\":\"6\"},\"id\":\"96ad4950-e094-11e7-951b-055a0953933c\",\"type\":\"visualization\",\"version\":\"6.1.0\"},{\"panelIndex\":\"7\",\"gridData\":{\"x\":2,\"y\":0,\"w\":6,\"h\":2,\"i\":\"7\"},\"id\":\"68bd49f0-e9a9-11e7-913f-898ef966e06f\",\"type\":\"visualization\",\"version\":\"6.1.0\"},{\"panelIndex\":\"8\",\"gridData\":{\"x\":10,\"y\":0,\"w\":2,\"h\":2,\"i\":\"8\"},\"version\":\"6.1.0\",\"type\":\"visualization\",\"id\":\"c76b6ae0-e9a9-11e7-913f-898ef966e06f\"},{\"panelIndex\":\"9\",\"gridData\":{\"x\":8,\"y\":0,\"w\":2,\"h\":2,\"i\":\"9\"},\"version\":\"6.1.0\",\"type\":\"visualization\",\"id\":\"a6464f60-e9a9-11e7-913f-898ef966e06f\"}]",
            "optionsJSON": "{\"darkTheme\":false,\"useMargins\":false}",
            "uiStateJSON": "{\"P-2\":{\"spy\":{\"mode\":{\"fill\":false,\"name\":null}},\"vis\":{\"legendOpen\":true}},\"P-3\":{\"spy\":{\"mode\":{\"fill\":false,\"name\":null}},\"vis\":{\"legendOpen\":true}},\"P-4\":{\"vis\":{\"defaultColors\":{\"0 - 100\":\"rgb(0,104,55)\"}}},\"P-5\":{\"vis\":{\"params\":{\"sort\":{\"columnIndex\":1,\"direction\":\"desc\"}}}},\"P-6\":{\"vis\":{\"legendOpen\":true}},\"P-8\":{\"spy\":{\"mode\":{\"fill\":false,\"name\":null}}}}",
            "version": 1,
            "timeRestore": false,
            "kibanaSavedObjectMeta": {
                "searchSourceJSON": "{\"query\":{\"language\":\"lucene\",\"query\":\"\"},\"filter\":[],\"highlightAll\":true,\"version\":true}"
            }
        },
        "_meta": {
            "savedObjectVersion": 2
        }
    },
    {
        "_id": "bffac0c0-e095-11e7-951b-055a0953933c",
        "_type": "visualization",
        "_source": {
            "title": "API Response Classes",
            "visState": "{\"title\":\"API Response Classes\",\"type\":\"pie\",\"params\":{\"type\":\"pie\",\"addTooltip\":true,\"addLegend\":true,\"legendPosition\":\"bottom\",\"isDonut\":true},\"aggs\":[{\"id\":\"1\",\"enabled\":true,\"type\":\"count\",\"schema\":\"metric\",\"params\":{}},{\"id\":\"2\",\"enabled\":true,\"type\":\"terms\",\"schema\":\"segment\",\"params\":{\"field\":\"http.response.class\",\"size\":5,\"order\":\"desc\",\"orderBy\":\"1\"}}]}",
            "uiStateJSON": "{}",
            "description": "",
            "version": 1,
            "kibanaSavedObjectMeta": {
                "searchSourceJSON": "{\"index\":\"915411e0-e162-11e7-913f-898ef966e06f\",\"filter\":[],\"query\":{\"query\":\"\",\"language\":\"lucene\"}}"
            }
        },
        "_meta": {
            "savedObjectVersion": 2
        }
    },
    {
        "_id": "ccc94c40-dfd2-11e7-9fb2-3ba409830aac",
        "_type": "visualization",
        "_source": {
            "title": "API Operation Volume",
            "visState": "{\"title\":\"API Operation Volume\",\"type\":\"histogram\",\"params\":{\"type\":\"histogram\",\"grid\":{\"categoryLines\":false,\"style\":{\"color\":\"#eee\"}},\"categoryAxes\":[{\"id\":\"CategoryAxis-1\",\"type\":\"category\",\"position\":\"bottom\",\"show\":true,\"style\":{},\"scale\":{\"type\":\"linear\"},\"labels\":{\"show\":true,\"truncate\":100},\"title\":{}}],\"valueAxes\":[{\"id\":\"ValueAxis-1\",\"name\":\"LeftAxis-1\",\"type\":\"value\",\"position\":\"left\",\"show\":true,\"style\":{},\"scale\":{\"type\":\"linear\",\"mode\":\"normal\"},\"labels\":{\"show\":true,\"rotate\":0,\"filter\":false,\"truncate\":100},\"title\":{\"text\":\"Count\"}}],\"seriesParams\":[{\"show\":\"true\",\"type\":\"histogram\",\"mode\":\"stacked\",\"data\":{\"label\":\"Count\",\"id\":\"1\"},\"valueAxis\":\"ValueAxis-1\",\"drawLinesBetweenPoints\":true,\"showCircles\":true,\"interpolate\":\"cardinal\",\"lineWidth\":1.5}],\"addTooltip\":true,\"addLegend\":true,\"legendPosition\":\"right\",\"times\":[],\"addTimeMarker\":false},\"aggs\":[{\"id\":\"1\",\"enabled\":true,\"type\":\"count\",\"schema\":\"metric\",\"params\":{}},{\"id\":\"2\",\"enabled\":true,\"type\":\"date_histogram\",\"schema\":\"segment\",\"params\":{\"field\":\"@timestamp\",\"interval\":\"auto\",\"customInterval\":\"2h\",\"min_doc_count\":1,\"extended_bounds\":{}}},{\"id\":\"3\",\"enabled\":true,\"type\":\"terms\",\"schema\":\"group\",\"params\":{\"field\":\"api.operationId\",\"size\":25,\"order\":\"desc\",\"orderBy\":\"1\"}}]}",
            "uiStateJSON": "{}",
            "description": "",
            "version": 1,
            "kibanaSavedObjectMeta": {
                "searchSourceJSON": "{\"index\":\"915411e0-e162-11e7-913f-898ef966e06f\",\"filter\":[],\"query\":{\"query\":\"\",\"language\":\"lucene\"}}"
            }
        },
        "_meta": {
            "savedObjectVersion": 2
        }
    },
    {
        "_id": "bf5e3190-e164-11e7-913f-898ef966e06f",
        "_type": "visualization",
        "_source": {
            "title": "API Heatmap By API Path and Code",
            "visState": "{\"title\":\"API Heatmap By API Path and Code\",\"type\":\"heatmap\",\"params\":{\"type\":\"heatmap\",\"addTooltip\":true,\"addLegend\":true,\"enableHover\":false,\"legendPosition\":\"right\",\"times\":[],\"colorsNumber\":4,\"colorSchema\":\"Greens\",\"setColorRange\":false,\"colorsRange\":[],\"invertColors\":false,\"percentageMode\":false,\"valueAxes\":[{\"show\":false,\"id\":\"ValueAxis-1\",\"type\":\"value\",\"scale\":{\"type\":\"linear\",\"defaultYExtents\":false},\"labels\":{\"show\":false,\"rotate\":0,\"color\":\"#555\"}}]},\"aggs\":[{\"id\":\"1\",\"enabled\":true,\"type\":\"count\",\"schema\":\"metric\",\"params\":{}},{\"id\":\"2\",\"enabled\":true,\"type\":\"terms\",\"schema\":\"segment\",\"params\":{\"field\":\"api.path\",\"size\":100,\"order\":\"desc\",\"orderBy\":\"1\"}},{\"id\":\"3\",\"enabled\":true,\"type\":\"terms\",\"schema\":\"split\",\"params\":{\"field\":\"http.response.code\",\"size\":13,\"order\":\"desc\",\"orderBy\":\"1\",\"customLabel\":\"\",\"row\":true}}]}",
            "uiStateJSON": "{\"vis\":{\"defaultColors\":{\"0 - 400\":\"rgb(247,252,245)\",\"400 - 800\":\"rgb(199,233,192)\",\"800 - 1,200\":\"rgb(116,196,118)\",\"1,200 - 1,600\":\"rgb(35,139,69)\"}}}",
            "description": "",
            "version": 1,
            "kibanaSavedObjectMeta": {
                "searchSourceJSON": "{\"index\":\"915411e0-e162-11e7-913f-898ef966e06f\",\"filter\":[],\"query\":{\"query\":\"\",\"language\":\"lucene\"}}"
            }
        },
        "_meta": {
            "savedObjectVersion": 2
        }
    },
    {
        "_id": "5107ed70-e165-11e7-913f-898ef966e06f",
        "_type": "visualization",
        "_source": {
            "title": "API Avg Response Time By Path and Method",
            "visState": "{\"title\":\"API Avg Response Time By Path and Method\",\"type\":\"heatmap\",\"params\":{\"type\":\"heatmap\",\"addTooltip\":true,\"addLegend\":true,\"enableHover\":false,\"legendPosition\":\"right\",\"times\":[],\"colorsNumber\":4,\"colorSchema\":\"Greens\",\"setColorRange\":false,\"colorsRange\":[],\"invertColors\":false,\"percentageMode\":false,\"valueAxes\":[{\"show\":false,\"id\":\"ValueAxis-1\",\"type\":\"value\",\"scale\":{\"type\":\"linear\",\"defaultYExtents\":false},\"labels\":{\"show\":false,\"rotate\":0,\"color\":\"#555\"}}]},\"aggs\":[{\"id\":\"1\",\"enabled\":true,\"type\":\"avg\",\"schema\":\"metric\",\"params\":{\"field\":\"responsetime\"}},{\"id\":\"2\",\"enabled\":true,\"type\":\"terms\",\"schema\":\"segment\",\"params\":{\"field\":\"api.path\",\"size\":50,\"order\":\"desc\",\"orderBy\":\"1\"}},{\"id\":\"3\",\"enabled\":true,\"type\":\"terms\",\"schema\":\"group\",\"params\":{\"field\":\"method\",\"size\":15,\"order\":\"desc\",\"orderBy\":\"1\"}}]}",
            "uiStateJSON": "{\"vis\":{\"defaultColors\":{\"0 - 14\":\"rgb(247,252,245)\",\"14 - 28\":\"rgb(199,233,192)\",\"28 - 42\":\"rgb(116,196,118)\",\"42 - 55\":\"rgb(35,139,69)\"}}}",
            "description": "",
            "version": 1,
            "kibanaSavedObjectMeta": {
                "searchSourceJSON": "{\"index\":\"915411e0-e162-11e7-913f-898ef966e06f\",\"filter\":[],\"query\":{\"query\":\"\",\"language\":\"lucene\"}}"
            }
        },
        "_meta": {
            "savedObjectVersion": 2
        }
    },
    {
        "_id": "edfd9e50-e164-11e7-913f-898ef966e06f",
        "_type": "visualization",
        "_source": {
            "title": "API Heatmap By Method and Path",
            "visState": "{\"title\":\"API Heatmap By Method and Path\",\"type\":\"heatmap\",\"params\":{\"type\":\"heatmap\",\"addTooltip\":true,\"addLegend\":true,\"enableHover\":false,\"legendPosition\":\"right\",\"times\":[],\"colorsNumber\":4,\"colorSchema\":\"Greens\",\"setColorRange\":false,\"colorsRange\":[],\"invertColors\":false,\"percentageMode\":false,\"valueAxes\":[{\"show\":false,\"id\":\"ValueAxis-1\",\"type\":\"value\",\"scale\":{\"type\":\"linear\",\"defaultYExtents\":false},\"labels\":{\"show\":false,\"rotate\":0,\"color\":\"#555\"}}]},\"aggs\":[{\"id\":\"1\",\"enabled\":true,\"type\":\"count\",\"schema\":\"metric\",\"params\":{}},{\"id\":\"2\",\"enabled\":true,\"type\":\"terms\",\"schema\":\"segment\",\"params\":{\"field\":\"api.path\",\"size\":100,\"order\":\"desc\",\"orderBy\":\"1\"}},{\"id\":\"3\",\"enabled\":true,\"type\":\"terms\",\"schema\":\"split\",\"params\":{\"field\":\"method\",\"size\":13,\"order\":\"desc\",\"orderBy\":\"1\",\"customLabel\":\"\",\"row\":true}}]}",
            "uiStateJSON": "{\"vis\":{\"defaultColors\":{\"0 - 325\":\"rgb(247,252,245)\",\"325 - 650\":\"rgb(199,233,192)\",\"650 - 975\":\"rgb(116,196,118)\",\"975 - 1,300\":\"rgb(35,139,69)\"}}}",
            "description": "",
            "version": 1,
            "kibanaSavedObjectMeta": {
                "searchSourceJSON": "{\"index\":\"915411e0-e162-11e7-913f-898ef966e06f\",\"filter\":[],\"query\":{\"query\":\"\",\"language\":\"lucene\"}}"
            }
        },
        "_meta": {
            "savedObjectVersion": 2
        }
    },
    {
        "_id": "2705cd20-dfd1-11e7-9fb2-3ba409830aac",
        "_type": "visualization",
        "_source": {
            "title": "API Volume",
            "visState": "{\"aggs\":[{\"enabled\":true,\"id\":\"1\",\"params\":{},\"schema\":\"metric\",\"type\":\"count\"},{\"enabled\":true,\"id\":\"2\",\"params\":{\"customInterval\":\"2h\",\"extended_bounds\":{},\"field\":\"@timestamp\",\"interval\":\"auto\",\"min_doc_count\":1},\"schema\":\"segment\",\"type\":\"date_histogram\"},{\"enabled\":true,\"id\":\"3\",\"params\":{\"field\":\"http.response.class\",\"order\":\"desc\",\"orderBy\":\"1\",\"size\":5},\"schema\":\"group\",\"type\":\"terms\"}],\"params\":{\"addLegend\":true,\"addTimeMarker\":false,\"addTooltip\":true,\"categoryAxes\":[{\"id\":\"CategoryAxis-1\",\"labels\":{\"show\":true,\"truncate\":100},\"position\":\"bottom\",\"scale\":{\"type\":\"linear\"},\"show\":true,\"style\":{},\"title\":{},\"type\":\"category\"}],\"grid\":{\"categoryLines\":false,\"style\":{\"color\":\"#eee\"}},\"legendPosition\":\"bottom\",\"seriesParams\":[{\"data\":{\"id\":\"1\",\"label\":\"Count\"},\"drawLinesBetweenPoints\":true,\"mode\":\"stacked\",\"show\":\"true\",\"showCircles\":true,\"type\":\"histogram\",\"valueAxis\":\"ValueAxis-1\"}],\"times\":[],\"type\":\"histogram\",\"valueAxes\":[{\"id\":\"ValueAxis-1\",\"labels\":{\"filter\":false,\"rotate\":0,\"show\":true,\"truncate\":100},\"name\":\"LeftAxis-1\",\"position\":\"left\",\"scale\":{\"mode\":\"normal\",\"type\":\"linear\"},\"show\":true,\"style\":{},\"title\":{\"text\":\"Count\"},\"type\":\"value\"}]},\"title\":\"API Volume\",\"type\":\"histogram\"}",
            "uiStateJSON": "{\"vis\":{\"legendOpen\":true}}",
            "description": "",
            "version": 1,
            "kibanaSavedObjectMeta": {
                "searchSourceJSON": "{\"index\":\"915411e0-e162-11e7-913f-898ef966e06f\",\"filter\":[],\"query\":{\"language\":\"lucene\",\"query\":\"\"}}"
            }
        },
        "_meta": {
            "savedObjectVersion": 2
        }
    },
    {
        "_id": "60653b30-dfd3-11e7-9fb2-3ba409830aac",
        "_type": "visualization",
        "_source": {
            "title": "API Response Time",
            "visState": "{\"title\":\"API Response Time\",\"type\":\"area\",\"params\":{\"type\":\"area\",\"grid\":{\"categoryLines\":false,\"style\":{\"color\":\"#eee\"}},\"categoryAxes\":[{\"id\":\"CategoryAxis-1\",\"type\":\"category\",\"position\":\"bottom\",\"show\":true,\"style\":{},\"scale\":{\"type\":\"linear\"},\"labels\":{\"show\":true,\"truncate\":100},\"title\":{}}],\"valueAxes\":[{\"id\":\"ValueAxis-1\",\"name\":\"LeftAxis-1\",\"type\":\"value\",\"position\":\"left\",\"show\":true,\"style\":{},\"scale\":{\"type\":\"linear\",\"mode\":\"normal\"},\"labels\":{\"show\":true,\"rotate\":0,\"filter\":false,\"truncate\":100},\"title\":{\"text\":\"Average responsetime\"}}],\"seriesParams\":[{\"show\":\"true\",\"type\":\"line\",\"mode\":\"normal\",\"data\":{\"label\":\"Average responsetime\",\"id\":\"1\"},\"drawLinesBetweenPoints\":true,\"showCircles\":true,\"interpolate\":\"linear\",\"valueAxis\":\"ValueAxis-1\"},{\"show\":true,\"mode\":\"normal\",\"type\":\"line\",\"drawLinesBetweenPoints\":true,\"showCircles\":true,\"interpolate\":\"linear\",\"data\":{\"id\":\"2\",\"label\":\"Max responsetime\"},\"valueAxis\":\"ValueAxis-1\"},{\"show\":true,\"mode\":\"normal\",\"type\":\"line\",\"drawLinesBetweenPoints\":true,\"showCircles\":true,\"interpolate\":\"linear\",\"data\":{\"id\":\"4\",\"label\":\"Min responsetime\"},\"valueAxis\":\"ValueAxis-1\"}],\"addTooltip\":true,\"addLegend\":true,\"legendPosition\":\"bottom\",\"times\":[],\"addTimeMarker\":false},\"aggs\":[{\"id\":\"1\",\"enabled\":true,\"type\":\"avg\",\"schema\":\"metric\",\"params\":{\"field\":\"responsetime\"}},{\"id\":\"2\",\"enabled\":true,\"type\":\"max\",\"schema\":\"metric\",\"params\":{\"field\":\"responsetime\"}},{\"id\":\"3\",\"enabled\":true,\"type\":\"date_histogram\",\"schema\":\"segment\",\"params\":{\"field\":\"@timestamp\",\"interval\":\"auto\",\"customInterval\":\"2h\",\"min_doc_count\":1,\"extended_bounds\":{}}},{\"id\":\"4\",\"enabled\":true,\"type\":\"min\",\"schema\":\"metric\",\"params\":{\"field\":\"responsetime\"}}]}",
            "uiStateJSON": "{}",
            "description": "",
            "version": 1,
            "kibanaSavedObjectMeta": {
                "searchSourceJSON": "{\"index\":\"915411e0-e162-11e7-913f-898ef966e06f\",\"filter\":[],\"query\":{\"query\":\"\",\"language\":\"lucene\"}}"
            }
        },
        "_meta": {
            "savedObjectVersion": 2
        }
    },
    {
        "_id": "2f7b7d40-e168-11e7-913f-898ef966e06f",
        "_type": "visualization",
        "_source": {
            "title": "API Avg Response Time",
            "visState": "{\"title\":\"API Avg Response Time\",\"type\":\"line\",\"params\":{\"type\":\"line\",\"grid\":{\"categoryLines\":true,\"style\":{\"color\":\"#eee\"}},\"categoryAxes\":[{\"id\":\"CategoryAxis-1\",\"type\":\"category\",\"position\":\"bottom\",\"show\":true,\"style\":{},\"scale\":{\"type\":\"linear\"},\"labels\":{\"show\":true,\"truncate\":100},\"title\":{}}],\"valueAxes\":[{\"id\":\"ValueAxis-1\",\"name\":\"LeftAxis-1\",\"type\":\"value\",\"position\":\"left\",\"show\":true,\"style\":{},\"scale\":{\"type\":\"linear\",\"mode\":\"normal\"},\"labels\":{\"show\":true,\"rotate\":0,\"filter\":false,\"truncate\":100},\"title\":{\"text\":\"Average responsetime\"}}],\"seriesParams\":[{\"show\":\"true\",\"type\":\"area\",\"mode\":\"normal\",\"data\":{\"label\":\"Average responsetime\",\"id\":\"1\"},\"valueAxis\":\"ValueAxis-1\",\"drawLinesBetweenPoints\":true,\"showCircles\":false}],\"addTooltip\":true,\"addLegend\":true,\"legendPosition\":\"right\",\"times\":[],\"addTimeMarker\":false},\"aggs\":[{\"id\":\"1\",\"enabled\":true,\"type\":\"avg\",\"schema\":\"metric\",\"params\":{\"field\":\"responsetime\"}},{\"id\":\"2\",\"enabled\":true,\"type\":\"date_histogram\",\"schema\":\"segment\",\"params\":{\"field\":\"@timestamp\",\"interval\":\"auto\",\"customInterval\":\"2h\",\"min_doc_count\":1,\"extended_bounds\":{}}}]}",
            "uiStateJSON": "{}",
            "description": "",
            "version": 1,
            "kibanaSavedObjectMeta": {
                "searchSourceJSON": "{\"index\":\"91f9c7c0-e162-11e7-913f-898ef966e06f\",\"filter\":[],\"query\":{\"query\":\"\",\"language\":\"lucene\"}}"
            }
        },
        "_meta": {
            "savedObjectVersion": 2
        }
    },
    {
        "_id": "ed232760-e165-11e7-913f-898ef966e06f",
        "_type": "visualization",
        "_source": {
            "title": "API Calls By Path and Method",
            "visState": "{\"title\":\"API Calls By Path and Method\",\"type\":\"pie\",\"params\":{\"type\":\"pie\",\"addTooltip\":true,\"addLegend\":true,\"legendPosition\":\"right\",\"isDonut\":true,\"labels\":{\"show\":true,\"values\":true,\"last_level\":true,\"truncate\":100}},\"aggs\":[{\"id\":\"1\",\"enabled\":true,\"type\":\"count\",\"schema\":\"metric\",\"params\":{}},{\"id\":\"2\",\"enabled\":true,\"type\":\"terms\",\"schema\":\"segment\",\"params\":{\"field\":\"api.path\",\"size\":50,\"order\":\"desc\",\"orderBy\":\"1\"}},{\"id\":\"3\",\"enabled\":true,\"type\":\"terms\",\"schema\":\"segment\",\"params\":{\"field\":\"method\",\"size\":25,\"order\":\"desc\",\"orderBy\":\"1\"}}]}",
            "uiStateJSON": "{}",
            "description": "",
            "version": 1,
            "kibanaSavedObjectMeta": {
                "searchSourceJSON": "{\"index\":\"91f9c7c0-e162-11e7-913f-898ef966e06f\",\"filter\":[],\"query\":{\"query\":\"\",\"language\":\"lucene\"}}"
            }
        },
        "_meta": {
            "savedObjectVersion": 2
        }
    },
    {
        "_id": "96ad4950-e094-11e7-951b-055a0953933c",
        "_type": "visualization",
        "_source": {
            "title": "API Top 10 Queries",
            "visState": "{\"title\":\"API Top 10 Queries\",\"type\":\"pie\",\"params\":{\"type\":\"pie\",\"addTooltip\":true,\"addLegend\":true,\"legendPosition\":\"right\",\"isDonut\":true,\"labels\":{\"show\":false,\"values\":true,\"last_level\":true,\"truncate\":100}},\"aggs\":[{\"id\":\"1\",\"enabled\":true,\"type\":\"count\",\"schema\":\"metric\",\"params\":{}},{\"id\":\"2\",\"enabled\":true,\"type\":\"terms\",\"schema\":\"segment\",\"params\":{\"field\":\"api.query\",\"size\":10,\"order\":\"desc\",\"orderBy\":\"1\"}}]}",
            "uiStateJSON": "{}",
            "description": "",
            "version": 1,
            "kibanaSavedObjectMeta": {
                "searchSourceJSON": "{\"index\":\"915411e0-e162-11e7-913f-898ef966e06f\",\"filter\":[],\"query\":{\"query\":\"\",\"language\":\"lucene\"}}"
            }
        },
        "_meta": {
            "savedObjectVersion": 2
        }
    },
    {
        "_id": "fdf832f0-dfd1-11e7-9fb2-3ba409830aac",
        "_type": "visualization",
        "_source": {
            "title": "API Operations",
            "visState": "{\"title\":\"API Operations\",\"type\":\"pie\",\"params\":{\"addLegend\":true,\"addTooltip\":true,\"isDonut\":true,\"legendPosition\":\"right\",\"type\":\"pie\",\"labels\":{\"show\":true,\"values\":true,\"last_level\":true,\"truncate\":100}},\"aggs\":[{\"id\":\"1\",\"enabled\":true,\"type\":\"count\",\"schema\":\"metric\",\"params\":{}},{\"id\":\"2\",\"enabled\":true,\"type\":\"terms\",\"schema\":\"segment\",\"params\":{\"field\":\"api.operationId\",\"size\":5,\"order\":\"desc\",\"orderBy\":\"1\"}}]}",
            "uiStateJSON": "{}",
            "description": "",
            "version": 1,
            "kibanaSavedObjectMeta": {
                "searchSourceJSON": "{\"index\":\"915411e0-e162-11e7-913f-898ef966e06f\",\"filter\":[],\"query\":{\"language\":\"lucene\",\"query\":\"\"}}"
            }
        },
        "_meta": {
            "savedObjectVersion": 2
        }
    },
    {
        "_id": "2f17ccc0-e094-11e7-951b-055a0953933c",
        "_type": "visualization",
        "_source": {
            "title": "API Top 10 Queries Details",
            "visState": "{\"aggs\":[{\"enabled\":true,\"id\":\"2\",\"params\":{\"customLabel\":\"Top 10 API Queries\",\"field\":\"api.query\",\"order\":\"desc\",\"orderBy\":\"1\",\"size\":10},\"schema\":\"bucket\",\"type\":\"terms\"},{\"enabled\":true,\"id\":\"5\",\"params\":{},\"schema\":\"metric\",\"type\":\"count\"},{\"enabled\":true,\"id\":\"1\",\"params\":{\"field\":\"responsetime\"},\"schema\":\"metric\",\"type\":\"avg\"},{\"enabled\":true,\"id\":\"3\",\"params\":{\"field\":\"responsetime\"},\"schema\":\"metric\",\"type\":\"min\"},{\"enabled\":true,\"id\":\"4\",\"params\":{\"field\":\"responsetime\"},\"schema\":\"metric\",\"type\":\"max\"},{\"enabled\":true,\"id\":\"6\",\"params\":{\"customLabel\":\"Avg Req Content Len\",\"field\":\"http.request.clength\"},\"schema\":\"metric\",\"type\":\"avg\"},{\"enabled\":true,\"id\":\"7\",\"params\":{\"customLabel\":\"Avg Resp Content Len\",\"field\":\"http.response.clength\"},\"schema\":\"metric\",\"type\":\"avg\"}],\"params\":{\"perPage\":10,\"showMeticsAtAllLevels\":true,\"showPartialRows\":false,\"showTotal\":false,\"sort\":{\"columnIndex\":null,\"direction\":null},\"totalFunc\":\"sum\"},\"title\":\"API Top 10 Queries Details\",\"type\":\"table\"}",
            "uiStateJSON": "{\"vis\":{\"params\":{\"sort\":{\"columnIndex\":1,\"direction\":\"desc\"}}}}",
            "description": "",
            "version": 1,
            "kibanaSavedObjectMeta": {
                "searchSourceJSON": "{\"index\":\"915411e0-e162-11e7-913f-898ef966e06f\",\"filter\":[],\"query\":{\"language\":\"lucene\",\"query\":\"\"}}"
            }
        },
        "_meta": {
            "savedObjectVersion": 2
        }
    },
    {
        "_id": "ffd832f0-e094-11e7-951b-055a0953933c",
        "_type": "visualization",
        "_source": {
            "title": "API Total Requests",
            "visState": "{\"title\":\"API Total Requests\",\"type\":\"metric\",\"params\":{\"addTooltip\":true,\"addLegend\":false,\"type\":\"metric\",\"metric\":{\"percentageMode\":false,\"colorSchema\":\"Green to Red\",\"useRange\":false,\"colorsRange\":[{\"from\":0,\"to\":100}],\"invertColors\":false,\"labels\":{\"show\":true,\"color\":\"black\"},\"style\":{\"fontSize\":40,\"bgColor\":false,\"labelColor\":false,\"subText\":\"Requests\"},\"minAngle\":0,\"maxAngle\":6.283185307179586,\"metricColorMode\":\"None\"}},\"aggs\":[{\"id\":\"1\",\"enabled\":true,\"type\":\"count\",\"schema\":\"metric\",\"params\":{\"customLabel\":\"Total Requests\"}}]}",
            "uiStateJSON": "{\"vis\":{\"defaultColors\":{\"0 - 100\":\"rgb(0,104,55)\"}}}",
            "description": "",
            "version": 1,
            "kibanaSavedObjectMeta": {
                "searchSourceJSON": "{\"index\":\"915411e0-e162-11e7-913f-898ef966e06f\",\"filter\":[],\"query\":{\"query\":\"\",\"language\":\"lucene\"}}"
            }
        },
        "_meta": {
            "savedObjectVersion": 2
        }
    },
    {
        "_id": "02727a00-e9a2-11e7-913f-898ef966e06f",
        "_type": "visualization",
        "_source": {
            "title": "API Overall Avg Response Time",
            "visState": "{\"title\":\"API Overall Avg Response Time\",\"type\":\"metric\",\"params\":{\"addTooltip\":true,\"addLegend\":false,\"type\":\"metric\",\"metric\":{\"percentageMode\":false,\"useRanges\":false,\"colorSchema\":\"Green to Red\",\"metricColorMode\":\"None\",\"colorsRange\":[{\"from\":0,\"to\":10000}],\"labels\":{\"show\":true},\"invertColors\":false,\"style\":{\"bgFill\":\"#000\",\"bgColor\":false,\"labelColor\":false,\"subText\":\"\",\"fontSize\":40}}},\"aggs\":[{\"id\":\"1\",\"enabled\":true,\"type\":\"avg\",\"schema\":\"metric\",\"params\":{\"field\":\"responsetime\",\"customLabel\":\"Avg Response Time (ms)\"}}]}",
            "uiStateJSON": "{}",
            "description": "",
            "version": 1,
            "kibanaSavedObjectMeta": {
                "searchSourceJSON": "{\"index\":\"91f9c7c0-e162-11e7-913f-898ef966e06f\",\"filter\":[],\"query\":{\"query\":\"\",\"language\":\"lucene\"}}"
            }
        },
        "_meta": {
            "savedObjectVersion": 2
        }
    },
    {
        "_id": "68bd49f0-e9a9-11e7-913f-898ef966e06f",
        "_type": "visualization",
        "_source": {
            "title": "API Total Response By Class",
            "visState": "{\"title\":\"API Total Response By Class\",\"type\":\"metric\",\"params\":{\"addTooltip\":true,\"addLegend\":false,\"type\":\"metric\",\"metric\":{\"percentageMode\":false,\"useRanges\":false,\"colorSchema\":\"Green to Red\",\"metricColorMode\":\"None\",\"colorsRange\":[{\"from\":0,\"to\":10000}],\"labels\":{\"show\":true},\"invertColors\":false,\"style\":{\"bgFill\":\"#000\",\"bgColor\":false,\"labelColor\":false,\"subText\":\"\",\"fontSize\":40}}},\"aggs\":[{\"id\":\"1\",\"enabled\":true,\"type\":\"count\",\"schema\":\"metric\",\"params\":{}},{\"id\":\"2\",\"enabled\":true,\"type\":\"terms\",\"schema\":\"group\",\"params\":{\"field\":\"http.response.class\",\"size\":5,\"order\":\"desc\",\"orderBy\":\"1\"}}]}",
            "uiStateJSON": "{}",
            "description": "",
            "version": 1,
            "kibanaSavedObjectMeta": {
                "searchSourceJSON": "{\"index\":\"915411e0-e162-11e7-913f-898ef966e06f\",\"filter\":[],\"query\":{\"query\":\"\",\"language\":\"lucene\"}}"
            }
        },
        "_meta": {
            "savedObjectVersion": 2
        }
    },
    {
        "_id": "a6464f60-e9a9-11e7-913f-898ef966e06f",
        "_type": "visualization",
        "_source": {
            "title": "Avg Request Content Len",
            "visState": "{\"title\":\"Avg Request Content Len\",\"type\":\"metric\",\"params\":{\"addTooltip\":true,\"addLegend\":false,\"type\":\"metric\",\"metric\":{\"percentageMode\":false,\"useRanges\":false,\"colorSchema\":\"Green to Red\",\"metricColorMode\":\"None\",\"colorsRange\":[{\"from\":0,\"to\":10000}],\"labels\":{\"show\":true},\"invertColors\":false,\"style\":{\"bgFill\":\"#000\",\"bgColor\":false,\"labelColor\":false,\"subText\":\"\",\"fontSize\":40}}},\"aggs\":[{\"id\":\"1\",\"enabled\":true,\"type\":\"avg\",\"schema\":\"metric\",\"params\":{\"field\":\"http.request.clength\",\"customLabel\":\"Avg Request Content Len (bytes)\"}}]}",
            "uiStateJSON": "{}",
            "description": "",
            "version": 1,
            "kibanaSavedObjectMeta": {
                "searchSourceJSON": "{\"index\":\"915411e0-e162-11e7-913f-898ef966e06f\",\"filter\":[],\"query\":{\"query\":\"\",\"language\":\"lucene\"}}"
            }
        },
        "_meta": {
            "savedObjectVersion": 2
        }
    },
    {
        "_id": "c76b6ae0-e9a9-11e7-913f-898ef966e06f",
        "_type": "visualization",
        "_source": {
            "title": "Avg Response Content Len",
            "visState": "{\"title\":\"Avg Response Content Len\",\"type\":\"metric\",\"params\":{\"addTooltip\":true,\"addLegend\":false,\"type\":\"metric\",\"metric\":{\"percentageMode\":false,\"useRanges\":false,\"colorSchema\":\"Green to Red\",\"metricColorMode\":\"None\",\"colorsRange\":[{\"from\":0,\"to\":10000}],\"labels\":{\"show\":true},\"invertColors\":false,\"style\":{\"bgFill\":\"#000\",\"bgColor\":false,\"labelColor\":false,\"subText\":\"\",\"fontSize\":40}}},\"aggs\":[{\"id\":\"1\",\"enabled\":true,\"type\":\"avg\",\"schema\":\"metric\",\"params\":{\"field\":\"http.response.clength\",\"customLabel\":\"Avg Response Content Len (bytes)\"}}]}",
            "uiStateJSON": "{}",
            "description": "",
            "version": 1,
            "kibanaSavedObjectMeta": {
                "searchSourceJSON": "{\"index\":\"915411e0-e162-11e7-913f-898ef966e06f\",\"filter\":[],\"query\":{\"query\":\"\",\"language\":\"lucene\"}}"
            }
        },
        "_meta": {
            "savedObjectVersion": 2
        }
    }
]